[gd_resource type="AudioBusLayout" format=2]

[resource]
bus/1/name = "sfx"
bus/1/solo = false
bus/1/mute = false
bus/1/bypass_fx = false
bus/1/volume_db = 0.0
bus/1/send = "Master"
bus/2/name = "music"
bus/2/solo = false
bus/2/mute = false
bus/2/bypass_fx = false
bus/2/volume_db = -23.3524
bus/2/send = "Master"
