[gd_resource type="SpatialMaterial" load_steps=4 format=2]

[ext_resource path="res://addons/qodot/textures/mjst_metal_beamwindow_specular.png" type="Texture" id=1]
[ext_resource path="res://addons/qodot/textures/materials/mjst_metal_beamwindow_material.png" type="Texture" id=2]
[ext_resource path="res://addons/qodot/textures/mjst_metal_beamwindow_normalbump.png" type="Texture" id=3]

[resource]
flags_transparent = true
albedo_texture = ExtResource( 2 )
metallic = 1.0
metallic_texture = ExtResource( 1 )
metallic_texture_channel = 4
roughness = 0.5
normal_enabled = true
normal_scale = 1.0
normal_texture = ExtResource( 3 )
