[gd_resource type="DynamicFont" load_steps=2 format=2]

[ext_resource path="res://fonts/DejaVuSansMono-BoldOblique.ttf" type="DynamicFontData" id=1]

[resource]
size = 24
use_mipmaps = true
use_filter = true
extra_spacing_space = -6
font_data = ExtResource( 1 )
